<?xml version="1.0" standalone="no"?>
<!DOCTYPE svg PUBLIC "-//W3C//DTD SVG 20010904//EN"
        "http://www.w3.org/TR/2001/REC-SVG-20010904/DTD/svg10.dtd">
<!-- Created using Krita: https://krita.org -->
<svg xmlns="http://www.w3.org/2000/svg"
     xmlns:xlink="http://www.w3.org/1999/xlink"
     xmlns:krita="http://krita.org/namespaces/svg/krita"
     xmlns:sodipodi="http://sodipodi.sourceforge.net/DTD/sodipodi-0.dtd"
     width="240pt"
     height="240pt"
     viewBox="0 0 240 240">
    <defs/>
    <path id="shape0"
          transform="matrix(0.999999981639339 0 0 0.999999981639339 19.2000025975339 9.71999944433591)"
          fill="#e44857" fill-rule="evenodd" stroke="#ffffff" stroke-width="9.6"
          stroke-linecap="square" stroke-linejoin="bevel"
          d="M0 47.88L100.8 0L201.6 47.88L100.8 95.8369Z"/>
    <path id="shape01"
          transform="matrix(0.999999977494942 0 0 0.999999977494942 19.1999995679029 57.600004677844)"
          fill="#c711e1" fill-rule="evenodd" stroke="#ffffff" stroke-width="9.6"
          stroke-linecap="square" stroke-linejoin="bevel"
          d="M3.55271e-15 0L100.8 47.88L100.8 172.945L0 124.8Z"/>
    <path id="shape02"
          transform="matrix(1.00000000748678 0 0 1.00000000748678 120.000000898413 57.6000017384834)"
          fill="#7f52ff" fill-rule="evenodd" stroke="#ffffff" stroke-width="9.6"
          stroke-linecap="square" stroke-linejoin="bevel"
          d="M0 48.24L100.8 0L100.8 124.8L0 172.691Z"/>
</svg>
